[
  {
    "key": "labinfo01",
    "type": "img_plus_input",
    "label": "Complete com as medidas em metros nos itens a seguir.",
    "placeholder": "",
    "description": "",
    "default_value": "Saliva de pirulito",
    "additonal_type": null,
    "image": "labinformatica",
    "radio": null,
    "input": {
      "dependency": null,
      "fields": [
        {
          "key": "A",
          "label": "A - ",
        },
        {
          "key": "B",
          "label": "B - ",
        },
        {
          "key": "C",
          "label": "C - ",
        },
        {
          "key": "D",
          "label": "D - ",
        },
        {
          "key": "Area",
          "label": "Área (AB+CD) - ",
        },
        {
          "key": "Perimetro",
          "label": "Perímetro (2B + 2C + 2D) - ",
        },
        {
          "key": "Pe-direito",
          "label": "Pé-direito - ",
        }
      ]
    }
  },
  {
    "key": "labinfo02",
    "type": "img_plus_input",
    "label": "Observe a descrição das esquadrias a seguir e verifique se elas foram instaladas corretamente. Caso não informe as quantidades.",
    "placeholder": "",
    "description": "",
    "default_value": "Saliva de pirulito",
    "additonal_type": null,
    "image": "tabelainformatica",
    "radio": [
      {
        "id": 0,
        "description": "Sim",
      },
      {
        "id": 2,
        "description": "Não",
      }
    ],
    "input": {
      "dependency": {
        "key": "radio",
        "value": 2
      },
      "fields": [
        {
          "key": "revestimento",
          "label": "Quantidade de P01:",
        },
        {
          "key": "revestimento",
          "label": "Quantidade de EF14:",
        },
      ]
    }
  },
  {
    "key": "labinfo03",
    "type": "text",
    "label": "Quantas luminárias de sobrepor com 2 lâmpadas 32W foram instaladas?",
    "placeholder": "",
    "description": "",
    "default_value": "",
    "additional_type": null,
  },
  {
    "key": "labinfo05",
    "type": "img_plus_input",
    "label": "O teto foi pintado?",
    "placeholder": "",
    "description": "",
    "default_value": "Saliva de pirulito",
    "additonal_type": null,
    "image": null,
    "radio": [
      {
        "id": 0,
        "description": "Não",
      },
      {
        "id": 1,
        "description": "Sim",
      }
    ],
  },
  {
    "key": "labinfo05",
    "type": "img_plus_input",
    "label": "Possui rodameio de cerâmica 10x10?",
    "placeholder": "",
    "description": "",
    "default_value": "Saliva de pirulito",
    "additonal_type": null,
    "image": null,
    "radio": [
      {
        "id": 0,
        "description": "Não",
      },
      {
        "id": 1,
        "description": "Sim",
      }
    ],
  },
  {
    "key": "labinfo07",
    "type": "text",
    "label": "Qual a altura que a cerâmica 20 cm x 20 cm foi instalada?",
    "placeholder": "",
    "description": "",
    "default_value": "",
    "additional_type": null,
  },
  {
    "key": "labinfo08",
    "type": "text",
    "label": "Qual a altura de parede que foi pintada?",
    "placeholder": "",
    "description": "",
    "default_value": "",
    "additional_type": null,
  },
  {
    "key": "labinfo09",
    "type": "img_plus_input",
    "label": "O revestimento foi aplicado em todo o perímetro?",
    "placeholder": "",
    "description": "",
    "default_value": "Saliva de pirulito",
    "additonal_type": null,
    "image": null,
    "radio": [
      {
        "id": 0,
        "description": "Sim",
      },
      {
        "id": 2,
        "description": "Não, em ",
      }
    ],
    "input": {
      "dependency": {
        "key": "radio",
        "value": 2
      },
      "fields": [
        {
          "key": "revestimento",
          "label": "Quantidade em metros:",
        },
      ]
    }
  },
  {
    "key": "labinfo10",
    "type": "img_plus_input",
    "label": "As prateleiras de granito foram instaladas?",
    "placeholder": "",
    "description": "",
    "default_value": "Saliva de pirulito",
    "additonal_type": null,
    "image":null,
    "radio": [
      {
        "id": 0,
        "description": "Sim, com as seguintes dimensões:",
      },
      {
        "id": 2,
        "description": "Não",
      }
    ],
    "input": {
      "dependency": {
        "key": "radio",
        "value": 0
      },
      "fields": [
        {
          "key": "revestimento",
          "label": "Comprimento da prateleira 1:",
        },
        {
          "key": "revestimento",
          "label": "Largura da prateleira 1:",
        },
        {
          "key": "revestimento",
          "label": "Comprimento da prateleira 2:",
        },
        {
          "key": "revestimento",
          "label": "Largura da prateleira 2:",
        },
        {
          "key": "revestimento",
          "label": "Qtd de prateleiras:",
        },
      ]
    }
  },
  {
    "key": "labinfo12",
    "type": "img_plus_input",
    "label": "As bancadas de granito foram instaladas?",
    "placeholder": "",
    "description": "",
    "default_value": "Saliva de pirulito",
    "additonal_type": null,
    "image": null,
    "radio": [
      {
        "id": 0,
        "description": "Sim, com as seguintes dimensões:",
      },
      {
        "id": 2,
        "description": "Não",
      }
    ],
    "input": {
      "dependency": {
        "key": "radio",
        "value": 0
      },
      "fields": [
        {
          "key": "revestimento",
          "label": "Comprimento da bancada 1:",
        },
        {
          "key": "revestimento",
          "label": "Largura da bancada 1:",
        },
        {
          "key": "revestimento",
          "label": "Comprimento da bancada 2:",
        },
        {
          "key": "revestimento",
          "label": "Largura da bancada 2:",
        },
        {
          "key": "revestimento",
          "label": "Qtd de bancadas:",
        },
      ]
    }
  },
   {
    "key": "labinfo13",
    "type": "picker",
    "label": "Qual tipo de piso foi instalado?",
    "description": "Selecionar alguma opção",
    "placeholder": "exemplo",
    "default_value": "",
    "aditional_type": null,
    "options": [
      "Bloco de concreto intertravado",
      "Cerâmico",
      "Cimento desempenado",
      "Granitina",
      "Outros"
    ]
  }
]
