[
    {
      "key": "p1solarium201",
      "type": "img_plus_input",
      "label": "Complete com as medidas em metros nos itens a seguir",
      "placeholder": "",
      "description": "",
      "default_value": "Saliva de pirulito",
      "additonal_type": null,
      "image": "solarium2",
      "radio": null,
      "input": {
        "dependency": null,
        "fields": [
          {
            "key": "A",
            "label": "A - ",
          },
          {
            "key": "B",
            "label": "B - ",
          },
          {
            "key": "C",
            "label": "C - ",
          },
          {
            "key": "D",
            "label": "D - ",
          },
          {
            "key": "Area",
            "label": "Area - ",
          },
          {
            "key": "Perimetro",
            "label": "Perimetro - ",
          },
        ]
      }
    },
    {
      "key": "p1solarium202",
      "type": "img_plus_input",
      "label": "Observe a descrição das esquadrias a seguir e verifique se elas foram instaladas corretamente.",
      "placeholder": "",
      "description": "",
      "default_value": "Saliva de pirulito",
      "additonal_type": null,
      "image": "p1solariumtab1",
      "radio": [
        {
          "id": 0,
          "description": "Sim",
        },
        {
          "id": 1,
          "description": "Não",
        }
      ],
      "input": {
        "dependency": {
          "key": "radio",
          "value": 0
        },
        "fields": [
          {
            "key": "portao",
            "label": "Qual a quantidade instalada de Portão de ferro?",
          },
        ]
      }
    },
  
    {
      "key": "p1solariu203",
      "type": "img_plus_input",
      "label": "As paredes de cobogó foram executadas?",
      "placeholder": "",
      "description": "",
      "default_value": "Saliva de pirulito",
      "additonal_type": null,
      "image": null,
      "radio": [
        {
          "id": 0,
          "description": "Sim, com as seguintes dimensões:",
        },
        {
          "id":
          1
          ,
          "description": "Não",
        }
      ],
      "input": {
        "dependency": {
          "key": "radio",
          "value": 0
        },
        "fields": [
          {
            "key": "revestimento",
            "label": "Altura: ",
          },
          {
            "key": "revestimento",
            "label": "Comprimento: ",
          },
        ]
      }
    },
    {
      "key": "p1solariu204",
      "type": "picker",
      "label": "Qual tipo de piso foi instalado?",
      "description": "Selecionar alguma opção",
      "placeholder": "exemplo",
      "default_value": "",
      "aditional_type": null,
      "options": [
        "Bloco de concreto intertravado",
        "Cerâmica",
        "Cimento desempenado",
        "Granitina",
        "Outros"
      ]
    }
  ]
  