[
    {
      "key": "servcaixa01",
      "type": "img_plus_input",
      "label": "A caixa em alvenaria foi instalada?",
      "placeholder": "",
      "description": "Selecionar alguma opção",
      "default_value": null,
      "additonal_type": null,
      "image": null,
      "radio": [
        {
          "id": 0,
          "description": "Não",
        },
        {
          "id": 2,
          "description": "Sim, com as seguintes dimensões em  metros:",
        }
      ],
      "input": {
        "dependency": {
          "key": "radio",
          "value": 2
        },
        "fields": [
          {
            "key": "Comprimento",
            "label": "Comprimento da prateleira: ",
          },
          {
            "key": "Largura",
            "label": "Largura: ",
          },
          {
            "key": "Quantidade",
            "label": "Número de prateleiras: ",
          },
        ]
      }
    },
    {
      "key": "servcaixa01",
      "type": "img_plus_input",
      "label": "As bombas foram instaladas?",
      "placeholder": "",
      "description": "",
      "default_value": null,
      "additonal_type": null,
      "image": null,
      "radio": [
        {
          "id": 0,
          "description": "Não",
        },
        {
          "id": 2,
          "description": "Sim",
        },
        {
           "id": 3,
           "description": "Sim, duas",
        }
      ]
    },
    {
      "key": "servcaixa01",
      "type": "img_plus_input",
      "label": "A caixa em alvenaria foi revestida (pintada)?",
      "placeholder": "",
      "description": "",
      "default_value": null,
      "additonal_type": null,
      "image": null,
      "radio": [
        {
          "id": 0,
          "description": "Não",
        },
        {
          "id": 2,
          "description": "Sim",
        }
      ]
    },
  ]
  